0.08917499999999999
0.072338
0.062068000000000005
0.068669
0.063965
0.064186
0.07383100000000001
0.07144
0.074402
0.19157799999999992
0.067003
0.18223699999999998
0.063792
0.19291199999999997
0.06479
0.06657300000000001
0.07077800000000001
0.07539
0.088364
0.06946200000000001
0.06276
0.06321
0.063096
0.068145
0.060053999999999996
0.066322
0.18231700000000006
0.066347
0.073264
0.19000899999999998
0.07792299999999999
0.45551400000000003
0.17058099999999998
0.071452
0.070452
0.07312500000000001
0.19745099999999993
0.39099799999999996
0.068689
0.06688999999999999
0.06977699999999999
0.07857
0.07078
0.07223
0.18820800000000004
0.070379
0.06383
0.07070699999999999
0.06731
0.070954
0.079883
0.07206
0.067866
0.075869
0.061106999999999995
0.068839
0.069952
0.072274
0.070173
0.182199
0.067456
0.18298999999999999
0.06962700000000001
0.4717370000000001
0.073844
0.077192
0.067815
0.073572
0.066259
0.069759
0.16942800000000002
0.071142
0.066813
0.07273199999999999
0.071298
0.07544200000000001
0.070099
0.070523
0.069793
0.068612
0.07227599999999999
0.074072
0.07326
0.06934499999999999
0.07095
0.07500899999999999
0.071076
0.064586
0.074173
0.059477
0.063274
0.06099999999999999
0.06586700000000001
0.06298999999999999
0.061458000000000006
0.063822
0.200847
0.06829299999999999
0.062976
0.064344
0.061994999999999995
0.069622
0.073813
0.06275900000000001
0.058825
0.16757500000000003
0.063535
0.06864200000000001
0.059675
0.063936
0.060509
0.058909
0.057
0.061419
0.1729799999999999
0.47123899999999996
0.060940999999999995
0.056464999999999994
0.48073999999999995
0.063444
0.0637
0.066299
0.061756
0.061693
0.46614
0.18672100000000003
0.067819
0.060388
0.07015
0.062196
0.064219
0.066717
0.17449400000000004
0.066467
0.059144999999999996
0.065175
0.067899
0.06150799999999999
0.060565
0.06338200000000001
0.06772800000000001
0.064764
0.18082699999999996
0.18237099999999995
0.060376
0.17134399999999994
0.060143999999999996
0.06777499999999999
0.059045
0.16867699999999997
0.068606
0.06406999999999999
0.061526
0.062957
0.0673
0.17642199999999997
0.06248700000000001
0.062422
0.064759
0.066602
0.067531
0.061956000000000004
0.068669
0.067163
0.068943
0.068175
0.479368
0.070345
0.071129
0.066675
0.067943
0.18093599999999999
0.19119799999999998
0.063303
0.130414
0.085553
0.070315
0.19545100000000004
0.060331
0.067865
0.060329
0.065864
0.074044
0.064453
0.059202
0.449772
0.094732
0.064367
0.06229799999999999
0.07005499999999999
0.066364
0.074475
0.06892
0.17083499999999996
0.19384899999999994
0.17596199999999995
0.09504699999999999
0.1719759999999999
0.47260899999999995
0.07858
0.062754
0.194071
0.062425999999999995
0.054754
0.064355
0.060781
0.48628899999999997
0.060582
0.18295799999999995
0.057798999999999996
0.063195
0.058325
0.062067000000000004
0.062192
0.059122
0.060912
0.059931
0.060289
0.17013699999999998
0.06197
0.060753999999999996
0.06159900000000001
0.059497
0.06342
0.059385
0.060258000000000006
0.060247
0.194036
0.058779
0.059718
0.17266899999999996
0.062258999999999995
0.056760000000000005
0.058473000000000004
0.061906
0.059514000000000004
0.06318599999999999
0.061963
0.06143699999999999
0.063954
0.059747999999999996
0.057872
0.058587
0.057602
0.06095400000000001
0.062007999999999994
0.053188
0.1762959999999999
0.06389199999999999
0.060436000000000004
0.059167
0.061009
0.060424
0.057724
0.06186300000000001
0.059684
0.06292099999999999
0.062100999999999996
0.065937
0.059148
0.06255899999999999
0.063502
0.063567
0.19266800000000006
0.05808
0.063472
0.483027
0.06154199999999999
0.053963000000000004
0.051359999999999996
0.06257
0.06186900000000001
0.062779
0.06123
0.169169
0.064485
0.06223200000000001
0.05861
0.062616
0.061803000000000004
0.06553199999999999
0.059218
0.054622000000000004
0.060824
0.06327899999999999
0.060525999999999996
0.061254
0.060188
0.058181000000000004
0.057254
0.062079999999999996
0.059313
0.063635
0.469228
0.057631
0.065386
0.174624
0.058813
0.059854000000000004
0.061477000000000004
0.174402
0.057851
0.18825499999999995
0.063402
0.06273100000000001
0.060424
0.061538
0.060991000000000004
0.06210700000000001
0.058687
0.061361
0.056202
0.063749
0.063646
0.474329
0.063616
0.059051
0.060951000000000005
0.066827
0.46293000000000006
0.48485500000000004
0.059388
0.1795279999999999
0.060045999999999995
0.06583
0.06341
0.061998
0.062366
0.06331200000000001
0.20031200000000005
0.059814
0.19660500000000003
0.063164
0.060911999999999994
0.058826
0.060698
0.060787999999999995
0.061714
0.187041
0.05818400000000001
0.057763999999999996
0.403598
0.057596999999999995
0.06542
0.06660100000000001
0.19522899999999999
0.168979
0.059197
0.058400999999999995
0.063801
0.060625000000000005
0.06594
0.20940199999999998
0.06494000000000001
0.06238
0.18519299999999994
0.061937
0.055925
0.20008599999999999
0.065996
0.06172299999999999
0.058679999999999996
0.066589
0.065637
0.17571599999999998
0.061588
0.060168
0.072899
0.059982
0.05781
0.058439
0.063674
0.057374999999999995
0.059912
0.065218
0.051705
0.061835
0.060156999999999995
0.060337
0.17664100000000005
0.052799
0.059215
0.060111
0.18688300000000002
0.061819000000000006
0.057741
0.06261900000000001
0.065569
0.058127
0.065722
0.062677
0.062042
0.060841000000000006
0.05844
0.063435
0.175292
0.066308
0.057269
0.060523
0.173029
0.059091
0.057005
0.06518700000000001
0.061869
0.06440799999999999
0.06247799999999999
0.057822
0.062024
0.19114300000000006
0.19506400000000002
0.062658
0.055435000000000005
0.19198899999999997
0.060784000000000005
0.17811100000000002
0.060867000000000004
0.059596
0.062157000000000004
0.19086000000000003
0.062713
0.051818
0.060266
0.065984
0.065279
0.067219
0.063925
0.06003
0.060425000000000006
0.050191
0.059825
0.058914
0.058695
0.058352
0.059906
0.175784
0.06117299999999999
0.058613000000000005
0.059969
0.061846000000000005
0.17481599999999997
0.059494
0.060576
0.192492
0.4697
0.1789179999999999
0.0684
0.061729
0.06259
0.061071
0.18350299999999997
0.063388
0.18692299999999995
0.059725999999999994
0.18342800000000004
0.06760999999999999
0.05769
0.061905
0.062179
0.062172
0.062164000000000004
0.06088400000000001
0.061946999999999995
0.38588100000000003
0.059768
0.062104
0.061254
0.057169000000000005
0.064239
0.059601
0.062334999999999995
0.04967
0.063858
0.05982
0.174126
0.061027000000000005
0.059705
0.056531
0.18566500000000008
0.057963999999999995
0.178342
0.066215
0.058659
0.059311
0.065237
0.065236
0.17439300000000002
0.059602
0.180195
0.060003999999999995
0.066261
0.0627
0.059459
0.06715299999999999
0.060064000000000006
0.060012
0.066201
0.063672
0.058701
0.057753000000000006
0.056598
0.060961999999999995
0.061591999999999994
0.18044000000000004
0.062654
0.056552
0.062877
0.063881
0.45716
0.06329599999999999
0.069942
0.17097800000000007
0.067048
0.0634
0.058931000000000004
0.076169
0.07595900000000001
0.06414600000000001
0.06615
0.059739
0.061096
0.06418
0.067839
0.059850999999999994
0.060973
0.061530999999999995
0.063289
0.062502
0.060537
0.063795
0.061614
0.074999
0.067067
0.18438100000000002
0.060614999999999995
0.061448
0.063416
0.065998
0.060606999999999994
0.064819
0.062308999999999996
0.064724
0.060651
0.064788
0.06253
0.062977
0.066262
0.068258
0.06506999999999999
0.066432
0.061073
0.06967100000000001
0.068263
0.06814
0.089579
0.059431000000000005
0.19648500000000002
0.067773
0.076384
0.063477
0.06620300000000001
0.07305099999999999
0.18124
0.066963
0.058752000000000006
0.17873400000000006
0.060091
0.05996
0.17763399999999996
0.06544
0.054811
0.18983800000000006
0.066633
0.063272
0.063915
0.060368
0.066006
0.06033
0.07114200000000001
0.06408
0.061571
0.05962
0.065977
0.058151
0.062181
0.064326
0.055177
0.204642
0.4747549999999999
0.06012000000000001
0.069938
0.063902
0.17949100000000007
0.059333
0.06337
0.066676
0.17761300000000002
0.06645699999999999
0.060951000000000005
0.06483499999999999
0.48649600000000004
0.066308
0.058884
0.062965
0.07488600000000001
0.094217
0.07590000000000001
0.060554
0.064988
0.058035
0.063064
0.062493
0.06966499999999999
0.172049
0.057604999999999996
0.070164
0.061935
0.077128
0.162261
0.057806
0.061758
0.069364
0.063163
0.19000299999999992
0.062881
0.061184
0.060427
0.058233
0.058315000000000006
0.06527100000000001
0.058754999999999995
0.066136
0.067651
0.06235399999999999
0.065566
0.062298
0.074966
0.063946
0.06386499999999999
0.18081200000000008
0.060880000000000004
0.059898999999999994
0.062501
0.061087
0.06693299999999999
0.072669
0.19701899999999994
0.061741000000000004
0.063201
0.057704
0.060086
0.061686
0.1738599999999999
0.06435099999999999
0.058317
0.072937
0.18466799999999994
0.092698
0.065365
0.079316
0.170659
0.06304699999999999
0.064607
0.063044
0.06209
0.18612800000000007
0.058497
0.072522
0.17246800000000007
0.20202300000000006
0.062757
0.08480700000000001
0.474027
0.05759
0.069146
0.481082
0.06349300000000001
0.059014
0.066971
0.066513
0.06117299999999999
0.06683900000000001
0.06378
0.060333
0.06746500000000001
0.065557
0.06444499999999999
0.16650300000000007
0.065728
0.064709
0.071918
0.18560299999999996
0.064445
0.19236799999999998
0.06522900000000001
0.06316999999999999
0.062281
0.092167
0.068395
0.19806400000000002
0.059628999999999995
0.18893399999999994
0.48251299999999997
0.193318
0.065794
0.06156199999999999
0.069419
0.062348999999999995
0.057891000000000005
0.18895099999999998
0.16976000000000002
0.063915
0.059378
0.063512
0.06194999999999999
0.064359
0.059712999999999995
0.06584599999999999
0.062588
0.064046
0.063475
0.064979
0.063267
0.065286
0.064581
0.061186
0.066879
0.070315
0.074881
0.479534
0.064916
0.17388599999999999
0.062909
0.18955100000000003
0.0606
0.17513499999999993
0.059305000000000004
0.067705
0.18035099999999998
0.063741
0.060596000000000004
0.17186600000000007
0.074312
0.059954
0.057329000000000005
0.19083799999999995
0.065392
0.060461
0.17997399999999997
0.060129
0.056374
0.057516
0.19502200000000003
0.055741
0.053334
0.06217
0.060806
0.06468800000000001
0.057964999999999996
0.05878
0.061454
0.06282800000000001
0.067687
0.061223
0.06217
0.06205499999999999
0.059660000000000005
0.06421400000000001
0.057492
0.061331
0.053766
0.059076
0.18080600000000002
0.188681
0.19750599999999996
0.059209
0.058591000000000004
0.061582
0.061866
0.06006
0.111895
0.055757
0.061684
0.18283799999999995
0.059559
0.059838999999999996
0.059489
0.068672
0.058737
0.18503999999999998
0.058703
0.05864
0.386964
0.06298300000000001
0.19809299999999996
0.063519
0.18934099999999998
0.063298
0.39117500000000005
0.064222
0.17911100000000002
0.059806
0.46956300000000006
0.056456
0.19587
0.064491
0.062389
0.068132
0.058533999999999996
0.06425399999999999
0.063988
0.093446
0.17436400000000007
0.17347999999999997
0.096761
0.12714399999999998
0.194461
0.063073
0.069556
0.062292
0.19246400000000008
0.059573
0.061024999999999996
0.063597
0.060666
0.18015000000000003
0.060458
0.059614
0.17082300000000006
0.066034
0.06222099999999999
0.061399
0.054175
0.071984
0.068108
0.06227200000000001
0.061905999999999996
0.19716699999999998
0.46569499999999997
0.053905999999999996
0.057335
0.06476499999999999
0.060326000000000005
0.18209300000000006
0.17695799999999995
0.18123299999999998
0.06065
0.061495
0.057388
0.06024
0.18704900000000002
0.065717
0.067177
0.063386
0.47964700000000005
0.061441
0.058661
0.059951
0.067345
0.059714
0.058229
0.06379299999999999
0.083437
0.062469
0.060481
0.1772109999999999
0.065156
0.065267
0.060972000000000005
0.059974
0.071246
0.061028
0.059021000000000004
0.058288
0.067018
0.185315
0.18319299999999994
0.060370999999999994
0.055542
0.181238
0.08736
0.19323
0.059846
0.060168
0.18203899999999995
0.066987
0.066642
0.07181599999999999
0.057705
0.064877
0.060847000000000005
0.062704
0.18820400000000004
0.066724
0.063863
0.064239
0.062808
0.093641
0.069094
0.064972
0.067085
0.06858900000000001
0.062470000000000005
0.06522
0.063544
0.064888
0.06453300000000001
0.067374
0.06383599999999999
0.065132
0.05946
0.063732
0.17411500000000002
0.059413999999999995
0.067638
0.062083
0.18094299999999996
0.063868
0.073824
0.054868
0.17695799999999995
0.062229
0.057974
0.067906
0.062274
0.157555
0.063174
0.072594
0.20902999999999994
0.1771790000000001
0.063221
0.065329
0.067696
0.06537899999999999
0.069785
0.06257399999999999
0.069026
0.05932
0.06738
0.174539
0.060576
0.066652
0.06472
0.18911299999999998
0.068387
0.05695
0.065323
0.065495
0.06667200000000001
0.062345
0.191206
0.19928800000000002
0.065107
0.069458
0.068178
0.060436000000000004
0.06865
0.062424999999999994
0.069369
0.06295200000000001
0.47761200000000004
0.06672700000000001
0.069081
0.06593900000000001
0.075574
0.051613
0.07138900000000001
0.06156
0.18941799999999998
0.06428500000000001
0.071151
0.17912499999999998
0.065289
0.064458
0.065387
0.066332
0.06486800000000001
0.14918
0.06369899999999999
0.063934
0.067364
0.069596
0.065645
0.4651970000000001
0.067456
0.05965
0.058286
0.065838
0.063606
0.066924
0.061705
0.18952800000000003
0.1915469999999999
0.06763799999999999
0.17909699999999995
0.16723700000000008
0.063276
0.060262
0.06165299999999999
0.063744
0.07132799999999999
0.057819999999999996
0.059727
0.057697000000000005
0.195075
0.057992
0.059084
0.060566
0.056131
0.060478
0.058143999999999994
0.06075200000000001
0.058026
0.052661
0.056847999999999996
0.057925
0.057690000000000005
0.052758
0.058689
0.060241
0.06273999999999999
0.061380000000000004
0.19073299999999993
0.20179000000000002
0.19957400000000003
0.060241
0.058775
0.06978000000000001
0.053931
0.055569
0.058954
0.058554
0.058226
0.388853
0.060112
0.060803
0.062376999999999995
0.06917200000000001
0.056104
0.05935
0.061209
0.055239
0.17871199999999998
0.057558
0.180238
0.057008
0.059782999999999996
0.057894
0.059165999999999996
0.19405700000000004
0.057644
0.055765999999999996
0.058109
0.060312
0.057926
0.055930999999999995
0.058591000000000004
0.181755
0.060732999999999995
0.054534
0.057885000000000006
0.045213
0.196654
0.055782000000000005
0.058898
0.057125
0.058495
0.057978
0.056742
0.182917
0.053446999999999995
0.060063
0.05527
0.060916000000000005
0.060992000000000005
0.059092000000000006
0.061086999999999995
0.051208000000000004
0.058868000000000004
0.05979
0.060036
0.06185
0.17523900000000003
0.059588
0.056036
0.060421
0.052806
0.460056
0.059022
0.06082
0.048534
0.053957000000000005
0.059691
0.39063899999999996
0.056898000000000004
0.055091999999999995
0.058926
0.058115
0.059921
0.057616
0.059228
0.057011
0.056937
0.064862
0.057097
0.060038999999999995
0.057264
0.059512999999999996
0.056301
0.059061
0.055831
0.058652
0.062884
0.058202
0.059765
0.181442
0.056993999999999996
0.057617
0.064282
0.04631
0.055687
0.064077
0.060453
0.054433
0.058575
0.060752
0.054336999999999996
0.18283000000000005
0.056005
0.385342
0.057884
0.061847
0.060556
0.057635
0.057955000000000007
0.060036
0.174014
0.060863999999999994
0.060414
0.059704
0.057036
0.060645000000000004
0.058445
0.18695299999999992
0.059015000000000005
0.47856699999999996
0.056602
0.056569
0.061334
0.055694
0.38554
0.386923
0.17971700000000002
0.055988
0.058624
0.057505
0.057338
0.057624
0.056004
0.058079
0.056714
0.058891
0.48305299999999995
0.056886
0.060104
0.058030000000000005
0.05956
0.061999000000000005
0.058596
0.17020900000000005
0.059347000000000004
0.17623299999999997
0.061416000000000005
0.055915
0.058847000000000003
0.06268499999999999
0.49095
0.1811910000000001
0.057196
0.17975800000000008
0.059137
0.18576199999999998
0.06116800000000001
0.061028
0.053857
0.05785
0.060256000000000004
0.06370999999999999
0.057271
0.060197
0.061270000000000005
0.060518
0.062483
0.058603
0.063969
0.17978499999999997
0.18813199999999997
0.058179
0.063413
0.059351999999999995
0.057485
0.17045899999999992
0.47338
0.06235400000000001
0.053472
0.47830799999999996
0.056170000000000005
0.060687
0.058911
0.059612
0.05831
0.05669
0.059741
0.060752999999999995
0.057211
0.18531999999999993
0.057622
0.170821
0.059376
0.057463
0.061109000000000004
0.05586
0.056984
0.055495
0.060385999999999995
0.052421
0.061239999999999996
0.172282
0.062606
0.064716
0.057703
0.069941
0.065855
0.061117
0.054135
0.05907
0.06291999999999999
0.061666000000000006
0.17909699999999995
0.052026
0.058056
0.060111
0.056953000000000004
0.059584000000000005
0.059389
0.057129
0.060912999999999995
0.058465
0.061857999999999996
0.058782
0.058019
0.17611200000000005
0.059981
0.056202
0.18170600000000003
0.056487
0.06094
0.17458600000000002
0.060429
0.059470999999999996
0.056692
0.06769399999999999
0.06190299999999999
0.059536
0.057172
0.056819999999999996
0.056311
0.191743
0.18230599999999997
0.062611
0.056824
0.062382999999999994
0.058755999999999996
0.05608
0.47038199999999997
0.183149
0.056001
0.061431999999999994
0.061233
0.060006000000000004
0.058113
0.19354399999999994
0.06450499999999999
0.18605300000000002
0.057659
0.057449
0.058814
0.176485
0.06117600000000001
0.059699999999999996
0.056942
0.06205
0.058429
0.19331399999999999
0.190199
0.18975199999999992
0.062916
0.057758
0.057071
0.18046700000000004
0.05579
0.057816
0.17620899999999995
0.060041
0.18440100000000004
0.049621
0.058409
0.058962
0.059187
0.062438
0.059795
0.06009899999999999
0.059144
0.058379
0.060483
0.058082999999999996
0.17911100000000002
0.059375
0.061238
0.051332
0.060783000000000004
0.1799130000000001
0.055432
0.06087399999999999
0.062305000000000006
0.062716
0.061066999999999996
0.06279900000000001
0.055815000000000003
0.057245
0.060192
0.19466899999999998
0.048242999999999994
0.060281
0.054213
0.05541
0.062397
0.060069000000000004
0.058247
0.056044
0.057234
0.171055
0.059958
0.057912
0.056474
0.048559
0.0572
0.059975999999999995
0.059081
0.056618
0.052813
0.058264
0.057618
0.06341100000000001
0.056898
0.061792
0.063136
0.054428
0.059961
0.057735
0.057989000000000006
0.057475
0.056431
0.054503
0.058389
0.055562
0.17079100000000003
0.18297599999999992
0.05663
0.057128
0.059281
0.055231
0.055929
0.057232000000000005
0.062557
0.060056
0.055509999999999976
0.059904
0.059022000000000005
0.05478
0.059226999999999995
0.055678
0.18206
0.057599
0.060490999999999996
0.057005
0.058685999999999995
0.057307
0.17499599999999998
0.059398
0.186203
0.472109
0.0589
0.059689
0.054944
0.058996
0.058655
0.179902
0.060850999999999995
0.19064199999999998
0.061064999999999994
0.055971
0.060018999999999996
0.056782
0.055375
0.056711
0.06058
0.061045
0.18446000000000007
0.060305000000000004
0.057299
0.054437
0.057631
0.058477
0.057599
0.05582
0.057615
0.057236
0.050747
0.058395999999999997
0.054247
0.056088
0.058967
0.17905300000000002
0.06511
0.05739
0.059392
0.053426
0.057229999999999996
0.4730869999999999
0.057594
0.060167
0.058141
0.055178
0.059311
0.057052
0.05318
0.056468000000000004
0.056674
0.0566
0.066923
0.058523
0.17775700000000005
0.057411000000000004
0.055097
0.18075799999999997
0.471669
0.058283
0.1761410000000001
0.0594
0.058019
0.18357400000000001
0.06304599999999999
0.059674
0.17799999999999994
0.05707
0.05775
0.057594
0.057423
0.16968099999999997
0.056171
0.185238
0.05573
0.059149
0.182902
0.061149
0.172319
0.058875
0.058745
0.057658
0.055401
0.056095
0.174431
0.063151
0.058533999999999996
0.057191
0.059028000000000004
0.056951
0.059967999999999994
0.059329999999999994
0.057928
0.058696
0.061848
0.061700000000000005
0.058137
0.061981
0.054782
0.06256800000000001
0.057006
0.058862
0.056123
0.059023
0.18184500000000003
0.059766
0.059793000000000006
0.054210999999999995
0.183794
0.056874
0.057187
0.194249
0.179272
0.054404
0.19351600000000002
0.060038
0.061373
0.059983
0.060542
0.057548
0.058067
0.057627
0.05922499999999999
0.39260799999999996
0.057612
0.059105
0.056313999999999996
0.051608
0.056256
0.061502
0.062871
0.056992
0.05942
0.058012
0.058482
0.057474
0.057869000000000004
0.055014
0.061586
0.06061
0.060196
0.058962
0.058742
0.058912
0.058707
0.059508
0.06396099999999999
0.059364
0.059555
0.058904000000000005
0.060925999999999994
0.059377
0.058252
0.058852
0.054133999999999995
0.18803599999999998
0.17272600000000005
0.056929
0.173029
0.064807
0.061068
0.05632
0.059051000000000006
0.057952000000000004
0.061672
0.055889
0.064152
0.057012
0.06199299999999999
0.057057
0.05799
0.178821
0.061704999999999996
0.16588000000000003
0.056230999999999996
0.059957
0.18932099999999996
0.057761
0.063078
0.060091
0.061784
0.46827799999999997
0.060440999999999995
0.189535
0.059696000000000006
0.06182700000000001
0.058477
0.060719999999999996
0.061033000000000004
0.17166799999999993
0.056622
0.055809
0.064049
0.060765
0.058657
0.05819
0.057943
0.4704499999999999
0.055528999999999995
0.059512999999999996
0.058268
0.062609
0.06370300000000001
0.20880200000000004
0.052139000000000005
0.19353200000000004
0.056462
0.055043
0.057847
0.182865
0.059151999999999996
0.056465
0.054703
0.05595
0.057367
0.19450100000000003
0.057536
0.056902999999999995
0.058632000000000004
0.05666
0.054618
0.176593
0.059837999999999995
0.056603
0.057669
0.05852
0.059787
0.059945
0.05772
0.058588
0.062499
0.056146999999999996
0.062187
0.057039
0.059476999999999995
0.052886999999999997
0.054786999999999995
0.06395200000000001
0.19500300000000004
0.057127
0.172802
0.056437
0.057797999999999995
0.061683
0.06167600000000001
0.059399
0.05777
0.064103
0.057327
0.48007299999999997
0.055576
0.060515000000000006
0.057763
0.061432
0.06181299999999999
0.056571
0.059062
0.05960699999999999
0.060763
0.054391999999999996
0.17360799999999998
0.059605
0.059162
0.056885000000000005
0.056086
0.054718
0.056244999999999996
0.06253
0.18109799999999998
0.055894
0.057662
0.058202
0.056256999999999995
0.059691
0.055592
0.065331
0.054913000000000003
0.060222000000000005
0.0559
0.061513
0.1804969999999999
0.057619000000000004
0.060851999999999996
0.060306
0.045753
0.053354
0.057988000000000005
0.05872
0.056734
0.062069
0.057788
0.475368
0.055967
0.056575999999999994
0.061594
0.056685
0.057076999999999996
0.059003999999999994
0.058329
0.058645
0.057537
0.058133
0.058033
0.048695
0.17030500000000004
0.061498
0.056937
0.057929
0.19465900000000003
0.19131700000000007
0.056427000000000005
0.059096
0.058254
0.061356999999999995
0.191307
0.055712
0.059883
0.056746
0.05559
0.057995
0.059131
0.058653000000000004
0.050798
0.049336
0.183346
0.17940500000000004
0.062734
0.048837
0.06189000000000001
0.057295
0.058431000000000004
0.060362
0.058603999999999996
0.17033299999999996
0.056026
0.055902
0.050245000000000005
0.19205499999999998
0.056216
0.4699540000000001
0.061023999999999995
0.047968000000000004
0.06099399999999999
0.058111
0.056057
0.0551
0.055115000000000004
0.055106
0.059826000000000004
0.062612
0.056568
0.059863
0.054119
0.17176999999999998
0.19798700000000002
0.051641
0.059327000000000005
0.053329
0.059959
0.190125
0.059798000000000004
0.468882
0.057449
0.052273
0.060749
0.057946000000000004
0.060457000000000004
0.057458
0.056285
0.061344
0.055002
0.053572
0.182299
0.060539
0.18760600000000005
0.060254
0.055668
0.062684
0.058255
0.056535
0.056354999999999995
0.054932
0.056057
0.059403000000000004
0.057374999999999995
0.060018
0.05979
0.058941
0.055549
0.05926
0.060244
0.053443000000000004
0.0591
0.04902
0.17179
0.18489499999999992
0.47486699999999993
0.051993
0.057571
0.057618
0.057701
0.056660999999999996
0.052496
0.052830999999999996
0.061614
0.058115
0.055944
0.060606
0.056087000000000005
0.060631
0.057968
0.056486
0.061485
0.17553800000000008
0.05741
0.18913100000000005
0.17087800000000009
0.05629
0.057866
0.17172200000000004
0.057697000000000005
0.062809
0.057163
0.058167
0.05898
0.057141
0.16887200000000002
0.06005
0.056410999999999996
0.17902600000000002
0.06419
0.057440000000000005
0.058736
0.476522
0.05646
0.057273000000000004
0.05952
0.057299
0.05255
0.057638999999999996
0.054094
0.056625
0.058551
0.056778999999999996
0.059476
0.171055
0.19603199999999998
0.061767
0.054219
0.059598
0.052816
0.062972
0.055129000000000004
0.058571
0.055082
0.056729
0.051725
0.059707
0.48280999999999996
0.0604
0.062106999999999996
0.471695
0.055471
0.17387799999999998
0.0596
0.06034
0.056809
0.054216
0.18127000000000004
0.061698
0.05509
0.060014000000000005
0.057968
0.062856
0.054671
0.06046
0.058832999999999996
0.050342
0.056671
0.057203000000000004
0.056888
0.17726299999999995
0.061107
0.054747000000000004
0.058492999999999996
0.052818
0.056357
0.058886
0.189488
0.057573
0.058496
0.056936
0.060436
0.059827
0.17482300000000006
0.059523000000000006
0.054949
0.058137
0.058854000000000004
0.17463800000000007
0.056961
0.058018
0.054002999999999995
0.477318
0.057694999999999996
0.059562000000000004
0.16733200000000004
0.05863
0.055258
0.056498999999999994
0.058380999999999995
0.052974
0.059305
0.055917
0.06179799999999999
0.057703
0.39993599999999996
0.055684
0.057244
0.055522
0.054456
0.058289
0.059209
0.061671000000000004
0.18600300000000003
0.056417
0.062646
0.057386
0.059128
0.056095
0.17576799999999998
0.059338999999999996
0.06315399999999999
0.056658
0.057373
0.057947
0.178767
0.059305
0.059931
0.053077
0.058636
0.053616
0.056992
0.17486100000000004
0.055481
0.056644
0.060622
0.055927
0.061432999999999995
0.061012
0.17597399999999996
0.057153999999999996
0.058549
0.18648200000000004
0.062787
0.058696
0.057282
0.058748999999999996
0.055255
0.057003000000000005
0.059375000000000004
0.062911
0.056632
0.061535000000000006
0.057997
0.056296
0.18825599999999998
0.060286
0.174458
0.060539
0.057204
0.059765
0.066982
0.042258
0.059733
0.48029
0.060205999999999996
0.056372
0.05955
0.062044999999999996
0.05983
0.18194100000000002
0.057839
0.054607
0.4785189999999999
0.177744
0.058682
0.055931
0.060963
0.18687399999999998
0.058147
0.058487000000000004
0.05946
0.056684
0.055039
0.057578
0.058048999999999996
0.058291
0.0488
0.06258100000000001
0.057043
0.058088
0.057312
0.05212
0.061120999999999995
0.053244
0.051668000000000006
0.06358
0.057800000000000004
0.059662
0.061828999999999995
0.057268
0.059102
0.06728300000000001
0.066195
0.07005
0.07223600000000001
0.066855
0.17206299999999997
0.072326
0.093041
0.05923
0.065276
0.180253
0.47160099999999994
0.06419899999999999
0.095156
0.058823
0.07049
0.072687
0.078153
0.069578
0.106158
0.06885300000000001
0.060090000000000005
0.18219399999999997
0.075715
0.083638
0.067715
0.06522199999999999
0.087951
0.068896
0.060957
0.19016100000000002
0.194206
0.060138000000000004
0.06811400000000001
0.06472399999999999
0.19001900000000005
0.10021300000000001
0.119425
0.062049
0.080926
0.064041
0.071827
0.069176
0.06724300000000001
0.065625
0.062456
0.174072
0.06996300000000001
0.061049
0.061369999999999994
0.06996899999999999
0.065857
0.073021
0.079783
0.08354299999999999
0.20074800000000004
0.073496
0.062405
0.06155599999999999
0.08044399999999999
0.086506
0.082515
0.46382199999999996
0.06016799999999999
0.17688000000000004
0.06887
0.1764610000000001
0.06187
0.19012399999999996
0.060088
0.064186
0.06559899999999999
0.061722000000000006
0.056782
0.061167
0.06004499999999999
0.06008
0.064459
0.063098
0.060481
0.062102
0.058521
0.063262
0.058489
0.060863
0.058733999999999995
0.057609
0.068302
0.055049
0.48412200000000005
0.060604
0.06295200000000001
0.06581
0.059566
0.060090000000000005
0.058534
0.062721
0.060164
0.16971499999999995
0.053002999999999995
0.063
0.06367500000000001
0.058495000000000005
0.18117099999999997
0.057559
0.4014439999999999
0.060434
0.18762099999999993
0.17900300000000002
0.06281199999999999
0.059478
0.062224
0.059128
0.058235
0.059787
0.061074
0.054112
0.061156
0.06618700000000001
0.059211
0.062679
0.067733
0.064847
0.3918299999999999
0.17806599999999995
0.059399999999999994
0.060357999999999995
0.060205
0.046703
0.061179000000000004
0.063532
0.06510300000000001
0.059292000000000004
0.059099
0.061953999999999995
0.058481
0.171146
0.060673
0.059732
0.058975
0.057974
0.045591
0.064625
0.056571
0.058014
0.060308
0.056337
0.052084000000000005
0.064583
0.059271
0.059219
0.059731
0.06112
0.061188
0.064626
0.060004
0.058665
0.063503
0.060794
0.19939399999999996
0.053808
0.058538
0.059708
0.063619
0.055001
0.057082999999999995
0.17818599999999996
0.051841
0.18941699999999995
0.053103
0.062575
0.058751000000000005
0.062706
0.05864
0.062602
0.048063
0.062625
0.18373400000000006
0.47056700000000007
0.059653
0.059562
0.060055000000000004
0.057725
0.17478499999999997
0.062578
0.061768
0.062306
0.061436
0.06915500000000001
0.064245
0.18086899999999995
0.062679
0.06271
0.17381599999999997
0.066619
0.074664
0.06221
0.057443
0.054901
0.064199
0.065744
0.06645699999999999
0.062329999999999997
0.057848000000000004
0.057677
0.058144
0.1666
0.173037
0.056733
0.05845
0.059912
0.057344000000000006
0.059861
0.060191
0.056088
0.056924999999999996
0.06307
0.058834
0.059849
0.057087
0.052532
0.17626299999999995
0.057659
0.19186099999999995
0.48141
0.175242
0.17868499999999998
0.058305
0.053786
0.48660499999999995
0.073048
0.19079400000000002
0.06366400000000001
0.058162
0.058381
0.06332600000000001
0.058126000000000004
0.057368999999999996
0.059462
0.06350599999999999
0.18586000000000003
0.055109000000000005
0.06188
0.057573
0.19686100000000006
0.055426
0.059465
0.059824
0.4793799999999999
0.057193
0.05998
0.077403
0.057097
0.072086
0.061451000000000006
0.06085600000000001
0.06096499999999999
0.46548500000000004
0.060028
0.057571
0.05704
0.060654
0.078229
0.057316
0.18061100000000008
0.058463
0.178902
0.063835
0.060671
0.057118
0.18164199999999997
0.076474
0.06038600000000001
0.38792799999999994
0.06193499999999999
0.18131700000000006
0.060689999999999994
0.18449799999999994
0.062652
0.059058
0.059493
0.067492
0.058206
0.19478799999999996
0.069834
0.19452000000000003
0.06506999999999999
0.17504199999999992
0.060270000000000004
0.060143
0.062307999999999995
0.060243000000000005
0.059029
0.06913799999999999
0.18399
0.056874999999999995
0.092559
0.05966
0.056093
0.0625
0.056304999999999994
0.060161
0.17411100000000002
0.178234
0.052536
0.192303
0.060345
0.057621000000000006
0.056732
0.188515
0.058848000000000004
0.185674
0.18240299999999998
0.057385
0.058142
0.058492999999999996
0.059147
0.17451799999999995
0.057889
0.058551
0.054679
0.06164
0.056453
0.058821
0.05841
0.054558
0.056160999999999996
0.069347
0.067485
0.181126
0.07150000000000001
0.18035500000000004
0.058798
0.1811330000000001
0.062714
0.07882499999999999
0.058753
0.059078
0.063802
0.064368
0.052156
0.063789
0.059281
0.057711
0.060057
0.054386
0.06388100000000001
0.076306
0.18147000000000002
0.055767
0.06581200000000001
0.06122999999999999
0.06167
0.180863
0.056933
0.07027599999999999
0.059012999999999996
0.06249799999999999
0.058966000000000005
0.052666
0.060549
0.056893
0.058808
0.056359
0.05891
0.04474
0.186801
0.054046
0.06179
0.05827
0.061061
0.06938799999999999
0.058105
0.060938
0.057694999999999996
0.057911000000000004
0.06401
0.061322
0.052618
0.17939400000000005
0.067649
0.06173000000000001
0.066257
0.061220000000000004
0.181095
0.065668
0.061517
0.06612599999999999
0.19423999999999997
0.061031
0.060237
0.066519
0.059355
0.060079999999999995
0.058679
0.053689
0.059615
0.056607000000000005
0.057663
0.062249
0.059593
0.06458
0.167549
0.060807
0.059998
0.063059
0.059830999999999995
0.099172
0.060340000000000005
0.06585200000000001
0.06227100000000001
0.18009399999999998
0.055876
0.057849
0.057571
0.066857
0.06579900000000001
0.4803430000000001
0.059555000000000004
0.101836
0.090832
0.057959
0.060693
0.060108
0.063972
0.055736
0.067017
0.060818
0.06338400000000001
0.180103
0.060134
0.175524
0.094086
0.058122
0.058245
0.056186
0.06780900000000001
0.062209999999999994
0.060612000000000006
0.059935
0.05627
0.056047
0.061311
0.18581800000000004
0.179199
0.058137
0.059625000000000004
0.057308000000000005
0.18308800000000003
0.05794
0.48922999999999994
0.47013000000000005
0.059413
0.17752500000000004
0.064676
0.09568399999999999
0.19419000000000008
0.060218
0.16931600000000002
0.17696500000000004
0.051684
0.05287
0.056636000000000006
0.060923
0.188519
0.059389000000000004
0.058874
0.057283999999999995
0.060850999999999995
0.178817
0.058922999999999996
0.05633
0.10473800000000001
0.099413
0.19202599999999992
0.173991
0.16807100000000008
0.061717999999999995
0.1936
0.06250900000000001
0.06349700000000001
0.1950869999999999
0.054962
0.06878100000000001
0.059924
0.061527000000000005
0.17542500000000005
0.065767
0.17320100000000005
0.060309999999999996
0.065968
0.068384
0.06196
0.16454800000000003
0.063664
0.06376699999999999
0.18323100000000003
0.064528
0.061198
0.05993
0.073879
0.063443
0.17472600000000005
0.055691
0.19150699999999998
0.061963
0.19926199999999994
0.071894
0.17423999999999995
0.061177999999999996
0.06470000000000001
0.06785300000000001
0.077768
0.069923
0.063559
0.075863
0.064291
0.07565000000000001
0.064854
0.068472
0.060426999999999995
0.17774499999999993
0.06807
0.06656000000000001
0.068555
0.06967699999999999
0.07048
0.07366199999999999
0.467491
0.188685
0.07257799999999999
0.18278899999999998
0.059629
0.06602300000000001
0.069157
0.18893099999999996
0.065708
0.06201999999999999
0.183751
0.06532299999999999
0.17721699999999996
0.16489199999999993
0.06293399999999999
0.069318
0.069036
0.06609999999999999
0.06423
0.48081300000000005
0.057283
0.068578
0.17936199999999997
0.067105
0.068749
0.17638299999999996
0.073212
0.17960699999999996
0.18456000000000006
0.067898
0.068093
0.06872
0.060318
0.06971
0.065928
0.15063100000000001
0.068945
0.07008500000000001
0.062594
0.18285699999999994
0.067871
0.06543600000000001
0.058992
0.064195
0.197272
0.058953
0.06923299999999999
0.067002
0.06882999999999999
0.06353600000000001
0.068634
0.060987
0.068746
0.07205800000000001
0.068271
0.06141099999999999
0.069577
0.062837
0.069627
0.068535
0.18352599999999997
0.06906000000000001
0.068143
0.474274
0.06437399999999999
0.16910199999999997
0.062356999999999996
0.067223
0.068431
0.062164000000000004
0.066369
0.07840899999999999
0.067156
0.1963330000000001
0.066141
0.06349400000000001
0.19182299999999997
0.17555299999999996
0.058523
0.06634
0.062162999999999996
0.178651
0.059275999999999995
0.06016
0.065402
0.055203999999999996
0.19828199999999996
0.06602899999999999
0.058573999999999994
0.064325
0.055602
0.17669
0.063613
0.061607
0.057247
0.064755
0.18088400000000004
0.47018000000000004
0.06138999999999999
0.057064
0.048608
0.06743
0.059924
0.060924
0.060704
0.048427
0.1803459999999999
0.05904
0.057427
0.057121
0.055349999999999996
0.06299
0.176724
0.070598
0.05156
0.05938
0.058019
0.06161
0.058171
0.19387100000000002
0.17629300000000003
0.061792999999999994
0.18310499999999996
0.057514
0.05976
0.047588
0.058163999999999993
0.059161
0.061179000000000004
0.058915
0.050655
0.17798599999999998
0.061809
0.055749999999999994
0.060468999999999995
0.056380999999999994
0.062535
0.052933
0.056306999999999996
0.054916
0.060118
0.061801
0.060124
0.18238700000000008
0.18273799999999996
0.061560000000000004
0.06704299999999999
0.177574
0.062422000000000005
0.058843
0.05791
0.060105
0.477264
0.057735999999999996
0.061903999999999994
0.17682399999999998
0.060494
0.057292
0.062331000000000004
0.061624
0.064182
0.183732
0.058772
0.060214
0.182083
0.055632
0.062903
0.064646
0.058346
0.069853
0.061013000000000005
0.060351999999999996
0.17954499999999995
0.062163
0.06119599999999999
0.3934169999999999
0.059562
0.17973899999999998
0.059348
0.057231
0.057737
0.056345
0.06514299999999999
0.055600000000000004
0.060913
0.071916
0.059753
0.059576000000000004
0.06286800000000001
0.058804999999999996
0.059054
0.063163
0.058754
0.050556
0.055877
0.18332800000000005
0.056656
0.059862
0.060315
0.060314
0.058847000000000003
0.050911
0.17904700000000007
0.059382
0.19269500000000006
0.056204
0.17876800000000004
0.053012
0.060991000000000004
0.053512
0.072529
0.058453
0.05468
0.18252200000000007
0.179836
0.060166000000000004
0.17633500000000002
0.18055599999999994
0.060869
0.060048
0.060039
0.19396100000000005
0.056532
0.059355
0.05795
0.060914
0.059441
0.060673000000000005
0.061509
0.061899
0.058106000000000005
0.059070000000000004
0.47697200000000006
0.062191
0.058258
0.060371
0.18462499999999993
0.059666
0.057712
0.054457000000000005
0.4639420000000001
0.06303600000000001
0.479528
0.059961
0.056738000000000004
0.044739
0.052108
0.059023
0.059954
0.059417000000000005
0.058020999999999996
0.057111
0.057081
0.06250900000000001
0.06035
0.18122400000000005
0.061549000000000006
0.059315
0.06347599999999999
0.19041599999999992
0.19477500000000003
0.057368
0.059722
0.061399
0.063267
0.063785
0.056443
0.052307000000000006
0.059461
0.056838
0.060874
0.184481
0.053860000000000005
0.062448000000000004
0.057964
0.061375
0.061524
0.053419
0.47423099999999996
0.063175
0.062033000000000005
0.06509799999999999
0.061073999999999996
0.063513
0.056857
0.052621
0.062068000000000005
0.06150099999999999
0.0562
0.063071
0.05882
0.16371800000000003
0.063588
0.055754
0.061952999999999994
0.060006
0.055685000000000005
0.056842000000000004
0.061295999999999996
0.063351
0.056663000000000005
0.06160600000000001
0.063656
0.058802
0.05788
0.060433
0.062898
0.062172
0.05809400000000001
0.062164000000000004
0.063705
0.064943
0.18489100000000003
0.057063
0.058789
0.062203999999999995
0.177632
0.058861
0.057478
0.058596
0.466723
0.060926
0.064837
0.059001000000000005
0.056907
0.060635
0.057907
0.058082999999999996
0.059926
0.063386
0.060486
0.059148
0.06424800000000001
0.057819999999999996
0.062906
0.061209999999999994
0.058499
0.056877
0.066453
0.055085
0.06240299999999999
0.057922
0.061390999999999994
0.061662999999999996
0.064911
0.054069
0.06296900000000001
0.192067
0.06344200000000001
0.064246
0.060753
0.060737000000000006
0.060464000000000004
0.060425
0.059565
0.059034
0.064985
0.057986
0.05747
0.063773
0.058293000000000005
0.057833
0.060719
0.059469999999999995
0.05239
0.05866300000000001
0.064125
0.062467
0.058289999999999995
0.060795999999999996
0.063948
0.057624
0.056223
0.189264
0.061919
0.060638
0.060217
0.060848
0.057289
0.17323599999999995
0.063134
0.057177
0.058499
0.06266999999999999
0.058446
0.056302
0.06069499999999999
0.06505899999999999
0.055078
0.056269
0.063885
0.0586
0.06250900000000001
0.186218
0.055264
0.056190000000000004
0.19290999999999991
0.063437
0.062528
0.17951000000000006
0.056923
0.059102
0.062778
0.05493
0.19434399999999996
0.06458299999999999
0.056402
0.058133
0.057471
0.19128499999999993
0.059643
0.187129
0.058478
0.059959
0.060439999999999994
0.064771
0.059928
0.18410800000000005
0.058851
0.062018000000000004
0.056684000000000005
0.061576000000000006
0.06023
0.052094
0.055456
0.055322
0.060139
0.057000999999999996
0.056684
0.061056
0.057632
0.060238
0.05556
0.18015800000000004
0.057242
0.064429
0.053692
0.06288
0.05847
0.058535
0.056174
0.19046399999999997
0.19232399999999994
0.052747
0.058835
0.060218
0.062158
0.059412
0.055866
0.060820000000000006
0.063238
0.064625
0.17266500000000007
0.059056
0.061255
0.065028
0.059523
0.17246099999999998
0.06493199999999999
0.05899600000000001
0.052252
0.059946
0.481236
0.053662
0.060107999999999995
0.057536000000000004
0.05816
0.055768000000000005
0.059386999999999995
0.047167
0.061868
0.058369
