\relax 
\providecommand\hyper@newdestlabel[2]{}
\providecommand\HyperFirstAtBeginDocument{\AtBeginDocument}
\HyperFirstAtBeginDocument{\ifx\hyper@anchor\@undefined
\global\let\oldcontentsline\contentsline
\gdef\contentsline#1#2#3#4{\oldcontentsline{#1}{#2}{#3}}
\global\let\oldnewlabel\newlabel
\gdef\newlabel#1#2{\newlabelxx{#1}#2}
\gdef\newlabelxx#1#2#3#4#5#6{\oldnewlabel{#1}{{#2}{#3}}}
\AtEndDocument{\ifx\hyper@anchor\@undefined
\let\contentsline\oldcontentsline
\let\newlabel\oldnewlabel
\fi}
\fi}
\global\let\hyper@last\relax 
\gdef\HyperFirstAtBeginDocument#1{#1}
\providecommand\HyField@AuxAddToFields[1]{}
\providecommand\HyField@AuxAddToCoFields[2]{}
\@writefile{toc}{\contentsline {chapter}{\numberline {1}Abstract}{1}{chapter.1}}
\@writefile{lof}{\addvspace {10\p@ }}
\@writefile{lot}{\addvspace {10\p@ }}
\@writefile{toc}{\contentsline {chapter}{\numberline {2}Abstract in German}{2}{chapter.2}}
\@writefile{lof}{\addvspace {10\p@ }}
\@writefile{lot}{\addvspace {10\p@ }}
\citation{Schiff}
\citation{Naous2008}
\@writefile{toc}{\contentsline {chapter}{\numberline {3}Introduction}{3}{chapter.3}}
\@writefile{lof}{\addvspace {10\p@ }}
\@writefile{lot}{\addvspace {10\p@ }}
\newlabel{sec:introduction}{{3}{3}{Introduction}{chapter.3}{}}
\citation{Ludwig2015}
\citation{Ludwig2015}
\citation{Ludwig2014}
\citation{Ludwig2014}
\citation{openflowWhitepaper2008}
\citation{openflowWhitepaper2008}
\citation{Naous2008}
\citation{Canini2012}
\citation{Borokhovich2014}
\citation{Reitblatt2012}
\@writefile{toc}{\contentsline {chapter}{\numberline {4}Related Work}{6}{chapter.4}}
\@writefile{lof}{\addvspace {10\p@ }}
\@writefile{lot}{\addvspace {10\p@ }}
\citation{Ludwig2014}
\citation{Wang}
\citation{Handigol2009}
\citation{Kuzniar2015}
\citation{Mahajan2013}
\citation{Ludwig2015}
\citation{Tootoonchian2010}
\citation{Schiff}
\citation{Ludwig2014}
\@writefile{toc}{\contentsline {chapter}{\numberline {5}Consistent Update Algorithms}{9}{chapter.5}}
\@writefile{lof}{\addvspace {10\p@ }}
\@writefile{lot}{\addvspace {10\p@ }}
\newlabel{sec:consistent_update_algorithms}{{5}{9}{Consistent Update Algorithms}{chapter.5}{}}
\@writefile{toc}{\contentsline {section}{\numberline {5.1}WayUp}{9}{section.5.1}}
\@writefile{toc}{\contentsline {subsection}{\numberline {5.1.1}Explenation using an Example}{9}{subsection.5.1.1}}
\newlabel{subsec:explenation_of_wayup_using_an_example}{{5.1.1}{9}{Explenation using an Example}{subsection.5.1.1}{}}
\@writefile{lof}{\contentsline {figure}{\numberline {5.1}{\ignorespaces old and new route through a network}}{9}{figure.5.1}}
\newlabel{fig:explenation_of_wayup_old_and_new_route}{{5.1}{9}{old and new route through a network}{figure.5.1}{}}
\citation{Ludwig2014}
\@writefile{toc}{\contentsline {subsection}{\numberline {5.1.2}Optimization}{10}{subsection.5.1.2}}
\newlabel{subsec:wayup_optimization}{{5.1.2}{10}{Optimization}{subsection.5.1.2}{}}
\citation{Ludwig2014}
\@writefile{toc}{\contentsline {section}{\numberline {5.2}Peacock}{11}{section.5.2}}
\citation{Ludwig2015}
\@writefile{lof}{\contentsline {figure}{\numberline {5.2}{\ignorespaces old and new route of example}}{12}{figure.5.2}}
\newlabel{fig:peacock_old_and_new_route}{{5.2}{12}{old and new route of example}{figure.5.2}{}}
\@writefile{toc}{\contentsline {subsection}{\numberline {5.2.1}Explanation of the Algorithm}{12}{subsection.5.2.1}}
\citation{Ludwig2015}
\@writefile{lof}{\contentsline {figure}{\numberline {5.3}{\ignorespaces example network update}}{13}{figure.5.3}}
\newlabel{fig:example_loop_routes}{{5.3}{13}{example network update}{figure.5.3}{}}
\@writefile{lof}{\contentsline {figure}{\numberline {5.4}{\ignorespaces example network update after round one}}{13}{figure.5.4}}
\newlabel{fig:example_loop_routes_after_1}{{5.4}{13}{example network update after round one}{figure.5.4}{}}
\@writefile{toc}{\contentsline {subsection}{\numberline {5.2.2}Example how a packet can loop during a Weak/Relaxed Loop Free update}{13}{subsection.5.2.2}}
\newlabel{sec:Peacock_example_loop}{{5.2.2}{13}{Example how a packet can loop during a Weak/Relaxed Loop Free update}{subsection.5.2.2}{}}
\@writefile{lof}{\contentsline {figure}{\numberline {5.5}{\ignorespaces example network update after round two}}{14}{figure.5.5}}
\newlabel{fig:example_loop_routes_after_2}{{5.5}{14}{example network update after round two}{figure.5.5}{}}
\@writefile{lof}{\contentsline {figure}{\numberline {5.6}{\ignorespaces example network update after the whole network update finishes}}{14}{figure.5.6}}
\newlabel{fig:example_loop_routes_after_3}{{5.6}{14}{example network update after the whole network update finishes}{figure.5.6}{}}
\citation{ryu_book}
\@writefile{toc}{\contentsline {chapter}{\numberline {6}Implementation of a Consistent Update Framework}{16}{chapter.6}}
\@writefile{lof}{\addvspace {10\p@ }}
\@writefile{lot}{\addvspace {10\p@ }}
\newlabel{sec:controller}{{6}{16}{Implementation of a Consistent Update Framework}{chapter.6}{}}
\@writefile{toc}{\contentsline {section}{\numberline {6.1}Processing a REST request}{17}{section.6.1}}
\@writefile{toc}{\contentsline {section}{\numberline {6.2}WayUp}{18}{section.6.2}}
\@writefile{toc}{\contentsline {subsection}{\numberline {6.2.1}Structure of the REST request}{18}{subsection.6.2.1}}
\citation{Ludwig2014}
\@writefile{toc}{\contentsline {subsection}{\numberline {6.2.2}Implementation}{19}{subsection.6.2.2}}
\@writefile{toc}{\contentsline {section}{\numberline {6.3}Peacock}{19}{section.6.3}}
\@writefile{toc}{\contentsline {subsection}{\numberline {6.3.1}Structure of the REST request}{19}{subsection.6.3.1}}
\@writefile{toc}{\contentsline {subsection}{\numberline {6.3.2}Implementation}{20}{subsection.6.3.2}}
\@writefile{toc}{\contentsline {chapter}{\numberline {7}Methodology}{21}{chapter.7}}
\@writefile{lof}{\addvspace {10\p@ }}
\@writefile{lot}{\addvspace {10\p@ }}
\newlabel{sec:methodology}{{7}{21}{Methodology}{chapter.7}{}}
\@writefile{toc}{\contentsline {chapter}{\numberline {8}Empirical Evaluation}{23}{chapter.8}}
\@writefile{lof}{\addvspace {10\p@ }}
\@writefile{lot}{\addvspace {10\p@ }}
\@writefile{toc}{\contentsline {section}{\numberline {8.1}Update consisting of one OpenFlow Message}{23}{section.8.1}}
\newlabel{sec:experiment1}{{8.1}{23}{Update consisting of one OpenFlow Message}{section.8.1}{}}
\@writefile{toc}{\contentsline {subsection}{\numberline {8.1.1}Measurement Setup}{23}{subsection.8.1.1}}
\@writefile{toc}{\contentsline {subsection}{\numberline {8.1.2}Performing the Measurement}{23}{subsection.8.1.2}}
\@writefile{lof}{\contentsline {figure}{\numberline {8.1}{\ignorespaces topologie of experiment 1}}{23}{figure.8.1}}
\newlabel{fig:experiment1_topo}{{8.1}{23}{topologie of experiment 1}{figure.8.1}{}}
\@writefile{toc}{\contentsline {subsection}{\numberline {8.1.3}Measurement Summary}{24}{subsection.8.1.3}}
\newlabel{sec:experiment1_summary}{{8.1.3}{24}{Measurement Summary}{subsection.8.1.3}{}}
\@writefile{lof}{\contentsline {figure}{\numberline {8.2}{\ignorespaces topology of experiment 2-01}}{25}{figure.8.2}}
\newlabel{fig:experiment2-01_topo}{{8.2}{25}{topology of experiment 2-01}{figure.8.2}{}}
\@writefile{lof}{\contentsline {figure}{\numberline {8.3}{\ignorespaces old and new route of experiment 2-01}}{25}{figure.8.3}}
\newlabel{fig:experiment2-01_routes}{{8.3}{25}{old and new route of experiment 2-01}{figure.8.3}{}}
\@writefile{toc}{\contentsline {section}{\numberline {8.2}Duration of a Network Route Updates}{25}{section.8.2}}
\@writefile{toc}{\contentsline {subsection}{\numberline {8.2.1}Raw Execution Time of a Network Route Update}{25}{subsection.8.2.1}}
\newlabel{sec:experiment2}{{8.2.1}{25}{Raw Execution Time of a Network Route Update}{subsection.8.2.1}{}}
\@writefile{toc}{\contentsline {subsubsection}{\numberline {8.2.1.1}Description of the Measurement}{25}{subsubsection.8.2.1.1}}
\@writefile{toc}{\contentsline {subsubsection}{\numberline {8.2.1.2}Measurement Summary}{26}{subsubsection.8.2.1.2}}
\newlabel{sec:experiment2_summary}{{8.2.1.2}{26}{Measurement Summary}{subsubsection.8.2.1.2}{}}
\@writefile{toc}{\contentsline {subsection}{\numberline {8.2.2}WayUp Update}{27}{subsection.8.2.2}}
\newlabel{sec:experiment3}{{8.2.2}{27}{WayUp Update}{subsection.8.2.2}{}}
\@writefile{toc}{\contentsline {subsubsection}{\numberline {8.2.2.1}Description of the Submeasurements}{27}{subsubsection.8.2.2.1}}
\@writefile{toc}{\contentsline {subsubsection}{\numberline {8.2.2.2}Measurement Summary}{27}{subsubsection.8.2.2.2}}
\newlabel{sec:WayUp_summary}{{8.2.2.2}{27}{Measurement Summary}{subsubsection.8.2.2.2}{}}
\@writefile{lof}{\contentsline {figure}{\numberline {8.4}{\ignorespaces topology for submeasurement 1}}{28}{figure.8.4}}
\newlabel{fig:experiment_3-01_topo}{{8.4}{28}{topology for submeasurement 1}{figure.8.4}{}}
\@writefile{lof}{\contentsline {figure}{\numberline {8.5}{\ignorespaces topology for submeasurement 2}}{28}{figure.8.5}}
\newlabel{fig:experiment_3-02_topo}{{8.5}{28}{topology for submeasurement 2}{figure.8.5}{}}
\@writefile{lof}{\contentsline {figure}{\numberline {8.6}{\ignorespaces topology for submeasurement 3}}{28}{figure.8.6}}
\newlabel{fig:experiment_3-03_topo}{{8.6}{28}{topology for submeasurement 3}{figure.8.6}{}}
\@writefile{lof}{\contentsline {figure}{\numberline {8.7}{\ignorespaces topology for submeasurement 4}}{29}{figure.8.7}}
\newlabel{fig:experiment_3-04_topo}{{8.7}{29}{topology for submeasurement 4}{figure.8.7}{}}
\@writefile{lof}{\contentsline {figure}{\numberline {8.8}{\ignorespaces old and new route in submeasurement 1}}{29}{figure.8.8}}
\newlabel{fig:experiment_3-01_routes}{{8.8}{29}{old and new route in submeasurement 1}{figure.8.8}{}}
\@writefile{lof}{\contentsline {figure}{\numberline {8.9}{\ignorespaces old and new route in submeasurement 2}}{29}{figure.8.9}}
\newlabel{fig:experiment_3-02_routes}{{8.9}{29}{old and new route in submeasurement 2}{figure.8.9}{}}
\@writefile{lof}{\contentsline {figure}{\numberline {8.10}{\ignorespaces old and new route in submeasurement 3}}{29}{figure.8.10}}
\newlabel{fig:experiment_3-03_routes}{{8.10}{29}{old and new route in submeasurement 3}{figure.8.10}{}}
\@writefile{lof}{\contentsline {figure}{\numberline {8.11}{\ignorespaces old and new route in submeasurement 4}}{29}{figure.8.11}}
\newlabel{fig:experiment_3-04_routes}{{8.11}{29}{old and new route in submeasurement 4}{figure.8.11}{}}
\@writefile{lof}{\contentsline {figure}{\numberline {8.12}{\ignorespaces update duration of WayUp - whole}}{30}{figure.8.12}}
\newlabel{fig:wayup_summary_whole}{{8.12}{30}{update duration of WayUp - whole}{figure.8.12}{}}
\@writefile{lof}{\contentsline {figure}{\numberline {8.13}{\ignorespaces update duration of WayUp - median and first quartile}}{31}{figure.8.13}}
\newlabel{fig:wayup_summary_median}{{8.13}{31}{update duration of WayUp - median and first quartile}{figure.8.13}{}}
\@writefile{lof}{\contentsline {figure}{\numberline {8.14}{\ignorespaces topology for submeasurement 3}}{32}{figure.8.14}}
\newlabel{fig:experiment_4-03_topo}{{8.14}{32}{topology for submeasurement 3}{figure.8.14}{}}
\@writefile{toc}{\contentsline {subsection}{\numberline {8.2.3}Peacock Update}{32}{subsection.8.2.3}}
\newlabel{sec:experiment4}{{8.2.3}{32}{Peacock Update}{subsection.8.2.3}{}}
\@writefile{toc}{\contentsline {subsubsection}{\numberline {8.2.3.1}Description of the Submeasurements}{32}{subsubsection.8.2.3.1}}
\@writefile{lof}{\contentsline {figure}{\numberline {8.15}{\ignorespaces topology for submeasurement 5}}{33}{figure.8.15}}
\newlabel{fig:experiment_4-05_topo}{{8.15}{33}{topology for submeasurement 5}{figure.8.15}{}}
\@writefile{lof}{\contentsline {figure}{\numberline {8.16}{\ignorespaces old and new route in submeasurement 3}}{33}{figure.8.16}}
\newlabel{fig:experiment_4-03_routes}{{8.16}{33}{old and new route in submeasurement 3}{figure.8.16}{}}
\@writefile{lof}{\contentsline {figure}{\numberline {8.17}{\ignorespaces old and new route in submeasurement 5}}{33}{figure.8.17}}
\newlabel{fig:experiment_4-05_routes}{{8.17}{33}{old and new route in submeasurement 5}{figure.8.17}{}}
\@writefile{lof}{\contentsline {figure}{\numberline {8.18}{\ignorespaces update duration of Peacock - whole}}{34}{figure.8.18}}
\newlabel{fig:peacock_summary_whole}{{8.18}{34}{update duration of Peacock - whole}{figure.8.18}{}}
\@writefile{lof}{\contentsline {figure}{\numberline {8.19}{\ignorespaces update duration of Peacock - median and first quartile}}{35}{figure.8.19}}
\newlabel{fig:peacock_summary_median}{{8.19}{35}{update duration of Peacock - median and first quartile}{figure.8.19}{}}
\@writefile{toc}{\contentsline {subsubsection}{\numberline {8.2.3.2}Experiment Summary}{35}{subsubsection.8.2.3.2}}
\@writefile{toc}{\contentsline {section}{\numberline {8.3}Loops in Relaxed Loop Free Updates}{37}{section.8.3}}
\newlabel{sec:experiment5}{{8.3}{37}{Loops in Relaxed Loop Free Updates}{section.8.3}{}}
\@writefile{toc}{\contentsline {subsection}{\numberline {8.3.1}Measurement Setup}{37}{subsection.8.3.1}}
\@writefile{lof}{\contentsline {figure}{\numberline {8.20}{\ignorespaces network topology used for submeasurement 1}}{38}{figure.8.20}}
\newlabel{fig:experiment_5-01_topo}{{8.20}{38}{network topology used for submeasurement 1}{figure.8.20}{}}
\@writefile{lof}{\contentsline {figure}{\numberline {8.21}{\ignorespaces network update used for submeasurement 1}}{38}{figure.8.21}}
\newlabel{fig:experiment_5-01_routes}{{8.21}{38}{network update used for submeasurement 1}{figure.8.21}{}}
\@writefile{toc}{\contentsline {subsubsection}{\numberline {8.3.1.1}Submeasurement 1}{38}{subsubsection.8.3.1.1}}
\@writefile{lof}{\contentsline {figure}{\numberline {8.22}{\ignorespaces evaluation of submeasurement 1}}{39}{figure.8.22}}
\newlabel{fig:experiment_5-01_evaluation}{{8.22}{39}{evaluation of submeasurement 1}{figure.8.22}{}}
\@writefile{lof}{\contentsline {figure}{\numberline {8.23}{\ignorespaces network topology used for submeasurement 2}}{40}{figure.8.23}}
\newlabel{fig:experiment_5-02_topo}{{8.23}{40}{network topology used for submeasurement 2}{figure.8.23}{}}
\@writefile{lof}{\contentsline {figure}{\numberline {8.24}{\ignorespaces network update used for submeasurement 2}}{40}{figure.8.24}}
\newlabel{fig:experiment_5-02_routes}{{8.24}{40}{network update used for submeasurement 2}{figure.8.24}{}}
\@writefile{toc}{\contentsline {subsubsection}{\numberline {8.3.1.2}Submeasurement 2}{40}{subsubsection.8.3.1.2}}
\@writefile{toc}{\contentsline {subsubsection}{\numberline {8.3.1.3}Submeasurement 3}{40}{subsubsection.8.3.1.3}}
\@writefile{lof}{\contentsline {figure}{\numberline {8.25}{\ignorespaces evaluation of submeasurement 2}}{41}{figure.8.25}}
\newlabel{fig:experiment_5-02_evaluation}{{8.25}{41}{evaluation of submeasurement 2}{figure.8.25}{}}
\@writefile{lof}{\contentsline {figure}{\numberline {8.26}{\ignorespaces network topology used for submeasurement 3}}{42}{figure.8.26}}
\newlabel{fig:experiment_5-03_topo}{{8.26}{42}{network topology used for submeasurement 3}{figure.8.26}{}}
\@writefile{lof}{\contentsline {figure}{\numberline {8.27}{\ignorespaces network update used for submeasurement 3}}{42}{figure.8.27}}
\newlabel{fig:experiment_5-03_update}{{8.27}{42}{network update used for submeasurement 3}{figure.8.27}{}}
\@writefile{lof}{\contentsline {figure}{\numberline {8.28}{\ignorespaces evaluation of submeasurement 3}}{43}{figure.8.28}}
\newlabel{fig:experiment_5-03_evaluation}{{8.28}{43}{evaluation of submeasurement 3}{figure.8.28}{}}
\@writefile{lof}{\contentsline {figure}{\numberline {8.29}{\ignorespaces network topology used for subexperiment 4}}{44}{figure.8.29}}
\newlabel{fig:experiment_5-04_topo}{{8.29}{44}{network topology used for subexperiment 4}{figure.8.29}{}}
\@writefile{lof}{\contentsline {figure}{\numberline {8.30}{\ignorespaces network update used for subexperiment 4}}{44}{figure.8.30}}
\newlabel{fig:experiment_5-04_routes}{{8.30}{44}{network update used for subexperiment 4}{figure.8.30}{}}
\@writefile{lof}{\contentsline {figure}{\numberline {8.31}{\ignorespaces evaluation of submeasurement 4}}{45}{figure.8.31}}
\newlabel{fig:experiment_5-04_evaluation}{{8.31}{45}{evaluation of submeasurement 4}{figure.8.31}{}}
\@writefile{toc}{\contentsline {subsubsection}{\numberline {8.3.1.4}Submeasurement 4}{46}{subsubsection.8.3.1.4}}
\@writefile{toc}{\contentsline {subsection}{\numberline {8.3.2}Measurement Summary}{46}{subsection.8.3.2}}
\bibstyle{abbrv}
\bibdata{literatur}
\@writefile{toc}{\contentsline {chapter}{\numberline {9}Conclusion}{47}{chapter.9}}
\@writefile{lof}{\addvspace {10\p@ }}
\@writefile{lot}{\addvspace {10\p@ }}
\bibcite{Borokhovich2014}{1}
\bibcite{Canini2012}{2}
\bibcite{Handigol2009}{3}
\bibcite{VirtualBoxInstallationGuide}{4}
\bibcite{Kuzniar2015}{5}
\bibcite{GithubMininetFAQ}{6}
\bibcite{Ludwig2015}{7}
\bibcite{Ludwig2014}{8}
\bibcite{Mahajan2013}{9}
\bibcite{openflowWhitepaper2008}{10}
\bibcite{Naous2008}{11}
\bibcite{Reitblatt2012}{12}
\bibcite{Schiff}{13}
\bibcite{mininet.org}{14}
\bibcite{ryu_book}{15}
\bibcite{Tootoonchian2010}{16}
\bibcite{Wang}{17}
\@writefile{toc}{\contentsline {chapter}{References}{49}{chapter*.3}}
\citation{mininet.org}
\citation{mininet.org}
\citation{VirtualBoxInstallationGuide}
\citation{GithubMininetFAQ}
\@writefile{toc}{\contentsline {chapter}{\numberline {A}Installation}{51}{appendix.A}}
\@writefile{lof}{\addvspace {10\p@ }}
\@writefile{lot}{\addvspace {10\p@ }}
\@writefile{toc}{\contentsline {section}{\numberline {A.1}How to start the Test Environment}{51}{section.A.1}}
\@writefile{toc}{\contentsline {section}{\numberline {A.2}Repository}{51}{section.A.2}}
\newlabel{sec:repository}{{A.2}{51}{Repository}{section.A.2}{}}
\global\@altsecnumformattrue
