This is BibTeX, Version 0.99d (TeX Live 2014)
Capacity: max_strings=35307, hash_size=35307, hash_prime=30011
The top-level auxiliary file: UpdateSDN.aux
The style file: abbrv.bst
Database file #1: literatur.bib
Warning--there's a month but no year in GithubMininetFAQ
Warning--empty journal in Schiff
Warning--empty year in Schiff
Warning--empty publisher in ryu_book
Warning--empty year in ryu_book
You've used 17 entries,
            2118 wiz_defined-function locations,
            619 strings with 8373 characters,
and the built_in function-call counts, 6228 in all, are:
= -- 601
> -- 322
< -- 9
+ -- 128
- -- 110
* -- 405
:= -- 1026
add.period$ -- 65
call.type$ -- 17
change.case$ -- 105
chr.to.int$ -- 0
cite$ -- 22
duplicate$ -- 253
empty$ -- 469
format.name$ -- 110
if$ -- 1350
int.to.chr$ -- 0
int.to.str$ -- 17
missing$ -- 15
newline$ -- 102
num.names$ -- 34
pop$ -- 142
preamble$ -- 1
purify$ -- 89
quote$ -- 0
skip$ -- 168
stack$ -- 0
substring$ -- 232
swap$ -- 69
text.length$ -- 9
text.prefix$ -- 0
top$ -- 0
type$ -- 66
warning$ -- 5
while$ -- 50
width$ -- 19
write$ -- 218
(There were 5 warnings)
