3
5
0
3
3
9
2
1
3
2
3
6
4
3
6
5
5
2
4
4
3
2
3
4
2
1
2
4
3
5
5
2
0
2
5
4
7
5
5
1
2
1
3
4
3
3
2
5
4
0
4
4
3
1
3
3
2
4
1
3
5
1
4
2
3
2
0
2
4
3
2
4
2
6
3
4
2
0
1
5
1
1
4
4
3
3
5
3
3
0
3
2
5
6
5
4
3
2
4
2
0
4
2
8
3
3
3
5
2
2
4
1
5
2
4
4
1
1
0
5
2
5
3
7
2
7
0
0
1
2
4
5
4
4
2
2
2
1
0
1
1
5
6
1
2
5
3
2
2
3
5
2
4
1
0
3
1
2
3
3
8
1
3
5
2
0
1
3
2
4
7
3
4
7
3
4
2
1
4
2
7
7
3
0
6
3
4
3
7
4
4
1
3
4
5
0
2
6
3
3
