7
0
0
0
0
0
0
0
0
0
0
0
4
0
1
0
0
4
0
0
0
0
0
0
0
0
0
0
0
0
0
0
0
0
0
0
4
0
0
0
2
0
0
0
0
0
0
0
0
0
0
0
0
0
0
5
6
4
0
2
5
3
2
4
4
0
0
0
5
0
0
0
0
0
2
0
0
5
0
0
0
0
0
3
0
0
0
0
0
2
0
0
2
0
0
0
0
2
0
0
0
0
0
2
0
0
0
0
0
5
0
2
3
2
0
0
0
4
0
0
0
0
2
0
0
0
2
0
2
3
0
0
0
0
0
0
4
0
0
0
5
2
0
2
0
4
0
0
3
0
2
0
0
0
0
0
0
3
0
3
0
0
0
0
0
0
0
0
3
0
2
2
4
2
7
0
0
0
2
0
0
0
0
0
0
5
0
0
0
0
0
0
0
0
0
0
0
0
2
0
