3
5
2
4
1
0
5
3
2
2
6
7
3
0
4
3
1
1
4
0
5
3
3
2
4
4
3
3
0
2
4
2
3
2
4
2
2
2
1
2
5
5
2
3
4
8
2
2
4
0
2
0
1
0
2
7
5
7
0
1
2
5
2
4
10
1
6
4
1
0
3
3
5
4
4
3
4
5
4
4
0
3
3
3
1
3
6
4
0
6
0
4
1
1
2
0
4
2
8
2
0
2
1
4
6
2
0
3
8
8
1
2
6
5
3
3
1
2
3
2
4
4
2
3
2
3
2
0
4
3
4
0
1
1
4
7
5
0
2
6
2
0
0
3
6
2
0
7
3
0
5
3
1
4
2
4
0
2
7
6
2
2
0
4
0
3
5
3
0
3
3
5
4
4
5
4
5
3
7
3
2
6
0
5
0
0
6
7
4
2
1
3
3
4
3
1
0
3
0
8
