7
4
0
2
0
3
3
5
6
6
5
3
7
5
0
0
1
8
4
4
2
2
3
8
2
6
5
1
1
6
3
0
3
4
0
5
0
0
2
5
0
0
3
5
0
4
0
6
3
5
7
1
4
2
3
3
2
4
7
3
3
4
9
4
6
0
3
4
0
4
0
2
2
0
2
0
2
2
0
4
3
7
3
0
3
2
2
3
6
4
1
0
4
6
0
4
5
7
0
7
3
0
2
0
3
2
2
2
0
8
6
8
3
5
2
2
2
0
5
4
3
6
6
2
4
1
0
8
2
3
2
1
5
1
5
3
0
4
3
4
4
4
6
3
4
0
5
2
3
7
4
2
2
2
2
5
4
2
2
0
4
2
6
4
2
3
2
2
6
4
0
6
2
5
2
2
4
0
0
8
0
2
3
6
3
0
6
5
3
5
5
0
1
3
2
7
4
2
6
0
