0
0
0
0
0
0
0
0
3
0
0
0
7
0
3
9
0
0
0
2
0
0
0
0
0
2
0
2
2
0
3
0
0
0
5
0
0
2
3
0
0
0
2
5
2
0
0
0
0
0
3
0
5
7
0
4
0
0
6
5
0
8
0
0
0
0
0
6
3
0
3
0
0
0
5
0
0
2
0
0
7
0
2
0
0
0
0
0
0
2
6
0
0
0
7
0
2
0
2
2
