10
8
1
5
2
2
5
4
3
0
1
2
0
7
3
6
2
3
3
3
5
1
2
2
5
4
2
7
2
0
5
5
5
2
2
8
7
3
3
6
3
4
2
2
0
2
0
3
5
3
0
4
2
2
1
6
5
5
0
2
3
3
6
4
3
3
3
5
0
3
4
3
2
2
4
3
3
0
5
4
3
2
0
6
0
1
3
4
5
3
1
2
1
4
3
5
8
3
9
2
