3
4
2
2
5
2
2
8
2
2
2
5
2
6
2
3
6
4
4
0
5
4
2
6
0
5
0
10
6
4
7
2
2
3
7
4
7
4
3
3
2
2
2
4
4
3
5
3
2
2
4
3
4
0
4
4
4
0
3
5
6
10
6
2
0
0
2
3
2
2
4
0
0
5
3
4
0
3
0
0
0
5
2
4
4
2
0
0
4
5
2
4
5
7
3
7
5
0
2
3
