0
0
0
4
0
0
0
5
0
0
0
0
2
0
0
2
0
0
0
0
2
7
0
0
0
0
0
0
5
6
0
0
3
3
5
0
2
0
0
0
0
0
2
8
0
0
0
0
8
0
0
0
0
0
0
0
0
0
0
0
0
0
8
2
1
0
2
0
0
7
2
0
0
0
4
0
0
3
4
6
0
4
0
0
2
0
0
5
4
0
0
0
2
5
0
0
0
2
7
0
