0
3
0
0
0
0
0
0
0
0
0
2
0
0
5
0
0
5
4
0
3
7
0
0
2
0
2
6
0
0
0
0
0
0
0
0
0
0
6
9
0
4
8
0
5
0
0
0
4
3
0
0
2
0
6
3
0
0
0
2
3
0
2
0
0
6
0
0
0
0
2
7
0
4
0
0
0
0
3
0
0
0
0
0
5
0
3
0
3
0
0
10
0
0
0
7
4
0
5
2
