0
8
0
0
0
9
0
2
0
0
0
4
0
0
0
2
0
0
5
0
4
4
0
5
8
0
4
5
4
0
2
0
2
3
0
2
4
0
0
5
4
0
0
0
0
0
3
5
0
2
2
0
2
4
5
0
0
11
8
1
6
0
0
0
6
2
5
5
4
0
2
0
0
2
8
9
0
6
0
2
3
0
5
2
0
5
7
0
5
0
0
2
5
6
7
5
0
4
5
7
4
6
2
5
4
4
0
0
3
2
5
4
0
7
2
4
2
2
0
8
2
0
2
0
7
4
0
2
0
0
2
3
2
7
0
5
0
8
0
2
0
2
2
0
0
0
7
3
0
6
0
4
5
3
3
3
2
0
0
0
2
0
9
6
3
0
4
6
2
4
2
7
8
0
0
0
0
2
0
2
4
4
4
5
8
0
0
0
6
4
0
0
2
0
4
0
0
4
0
7
