3
3
3
2
1
2
3
3
1
2
7
1
2
4
5
3
3
3
1
4
4
3
7
3
5
3
6
3
4
5
3
2
1
2
5
2
6
6
3
3
4
2
6
3
0
2
1
0
0
4
4
6
4
2
1
3
3
4
2
3
6
0
7
3
3
2
0
9
3
5
5
2
2
7
6
2
2
6
3
3
5
2
4
4
5
2
5
4
1
3
0
0
4
3
2
2
2
3
3
3
4
1
4
4
4
3
2
6
6
3
5
0
4
3
2
2
2
2
4
2
5
4
6
3
2
6
2
3
7
2
3
2
0
4
2
1
3
4
2
3
5
3
4
5
3
5
3
3
5
1
1
5
2
7
7
1
2
3
6
1
5
4
5
3
0
5
4
6
1
6
6
6
4
6
1
4
2
0
3
7
0
2
2
3
7
2
4
7
3
5
2
2
8
6
4
2
3
3
6
1
