4
2
5
5
4
4
2
4
5
3
6
4
6
5
6
2
4
2
3
6
4
6
8
5
5
5
3
0
6
3
3
6
8
2
3
6
3
2
3
1
2
3
5
5
5
4
3
3
6
3
7
3
6
5
3
5
4
6
6
4
2
7
4
2
8
4
4
2
4
5
5
8
2
2
7
6
6
6
7
5
2
5
4
5
9
6
6
6
3
2
7
3
5
5
8
4
7
8
3
4
7
5
3
2
2
6
5
7
5
1
3
0
5
3
5
4
0
3
6
7
8
10
5
8
3
5
8
4
3
1
5
3
4
5
3
8
8
5
7
3
7
8
3
3
5
2
4
4
3
1
0
6
3
3
3
5
1
4
4
2
6
2
5
7
2
7
6
7
8
4
5
3
5
2
7
4
5
8
3
4
6
7
5
6
4
6
0
3
5
6
8
5
5
8
3
2
4
4
3
5
