2
3
2
0
1
0
1
0
2
5
2
3
1
2
6
0
6
1
2
2
3
9
8
0
3
0
0
1
8
1
1
4
4
3
1
6
3
7
0
4
4
1
3
2
1
1
3
0
2
3
2
1
2
0
9
1
1
1
2
1
2
0
0
1
3
2
1
2
1
0
3
1
0
3
1
1
2
5
1
0
0
5
1
2
1
1
1
0
2
0
0
1
0
2
2
1
7
1
3
0
2
1
1
0
3
2
1
2
0
2
2
0
1
3
2
1
4
0
1
0
1
2
2
1
3
1
1
0
0
0
2
2
3
1
0
2
1
3
2
3
2
1
1
2
1
1
3
5
2
4
3
0
0
0
1
7
2
2
4
2
2
2
3
1
2
1
2
0
1
6
2
2
0
4
2
2
5
3
0
1
0
2
0
3
0
7
2
2
0
1
1
2
2
3
1
2
7
2
7
3
