0
0
0
1
2
1
0
0
2
0
0
0
0
0
0
0
2
4
0
0
0
1
2
0
0
0
0
0
2
0
0
0
2
0
0
1
0
0
0
0
0
0
0
0
2
0
5
0
4
0
0
0
0
0
0
0
0
0
0
0
6
0
0
0
0
0
0
2
0
0
0
0
5
0
0
0
0
0
0
0
0
0
0
0
0
0
6
0
0
0
0
2
6
0
0
0
0
0
0
0
0
5
0
0
0
0
0
0
0
0
0
0
4
0
0
0
0
0
4
4
0
0
0
0
0
0
0
5
0
0
1
8
0
0
0
0
5
0
0
0
0
0
0
0
4
0
0
0
0
0
5
5
0
0
0
2
3
0
0
0
0
0
2
0
0
0
0
0
0
0
0
1
0
0
0
0
0
0
5
0
0
0
0
2
0
0
2
0
0
0
0
0
0
0
0
0
0
4
4
0
