2
1
6
2
0
3
0
5
2
6
3
0
2
3
1
1
1
1
0
0
6
7
8
1
0
2
0
2
1
6
1
2
3
0
1
0
2
3
1
1
0
4
3
0
0
0
0
0
0
2
3
0
3
2
0
2
0
4
1
1
0
1
1
3
0
3
3
1
0
2
0
2
1
8
2
2
8
3
0
1
1
1
3
0
2
5
1
2
3
0
4
0
3
2
1
2
1
0
0
2
0
2
1
2
1
0
0
2
6
3
3
2
0
0
2
8
3
0
0
1
3
2
0
1
1
1
0
2
3
5
3
3
2
1
0
0
3
2
2
2
1
1
0
2
0
4
3
3
0
3
3
0
0
2
0
2
1
0
1
1
2
0
0
1
0
0
5
7
1
3
2
1
0
2
3
0
0
2
1
0
2
0
0
2
2
0
3
3
5
2
3
1
1
0
2
3
1
2
7
2
