0
0
0
0
0
2
2
0
2
3
1
0
2
2
0
2
0
3
0
3
0
0
0
0
0
3
0
5
0
0
0
0
0
6
4
0
1
0
0
0
0
4
8
0
0
0
0
2
0
0
0
2
0
0
0
0
0
4
0
5
4
0
0
0
4
2
0
0
2
1
0
1
10
2
4
2
2
1
0
0
0
7
2
1
0
0
7
0
0
2
0
2
3
6
4
0
3
1
1
0
0
0
4
0
1
4
0
2
2
4
0
3
1
3
5
0
3
0
4
0
2
0
2
0
2
0
1
0
0
0
0
0
0
0
4
0
0
3
6
0
0
0
3
0
0
3
0
0
2
2
0
4
0
0
5
0
0
4
2
0
2
3
0
2
0
2
0
0
0
0
0
4
0
0
0
0
0
2
0
2
0
0
0
0
2
3
0
1
0
2
0
0
0
3
3
4
0
0
3
0
