0
3
2
0
0
0
0
0
0
2
2
2
0
1
2
0
0
0
0
0
0
0
0
0
0
0
0
0
0
0
2
0
0
2
5
0
2
0
2
1
0
0
0
3
2
0
0
2
3
6
0
0
1
1
0
1
0
2
0
4
0
0
0
0
0
0
3
1
2
0
3
4
0
0
3
0
0
0
6
5
2
6
0
2
0
3
2
2
1
0
0
0
0
0
2
0
0
0
0
0
4
5
0
2
0
0
0
2
4
0
6
2
0
0
0
0
0
0
0
0
0
0
0
0
6
3
2
4
0
6
0
0
0
0
0
1
0
0
0
0
0
0
2
0
0
0
0
0
0
0
0
1
0
0
0
0
0
0
0
0
0
4
0
0
0
3
0
0
0
0
0
0
0
0
0
3
0
0
1
0
0
2
0
0
2
0
0
0
0
0
0
0
0
0
0
3
0
0
0
0
