0
0
0
2
0
1
0
1
3
3
1
3
0
0
0
0
0
0
6
0
0
0
0
2
0
0
0
0
0
2
0
0
2
2
0
0
2
4
3
0
7
1
1
0
0
5
0
0
2
0
4
0
0
0
2
0
0
0
1
1
2
0
2
2
0
4
0
0
0
5
0
4
0
2
0
3
0
2
0
4
0
0
0
4
0
0
1
5
3
4
0
0
0
0
2
0
0
0
0
2
0
2
4
0
0
0
0
2
0
0
3
2
0
2
0
4
0
0
4
0
0
0
0
0
0
0
1
0
0
1
0
5
0
0
2
0
0
2
0
0
2
0
0
0
8
0
3
0
4
0
2
0
0
5
0
0
0
0
0
0
0
0
2
0
0
6
5
2
0
0
0
0
0
0
0
0
1
0
0
0
4
0
3
0
0
0
0
0
0
0
0
1
5
0
4
1
2
0
4
0
