1
3
1
5
1
3
6
0
0
4
0
1
0
4
4
1
2
0
1
4
8
1
1
0
1
2
2
7
1
0
0
0
1
3
1
1
1
2
8
1
2
0
8
2
6
0
1
0
2
0
3
2
7
0
1
1
2
10
3
2
0
6
2
0
5
0
0
5
3
0
2
1
0
5
6
1
0
0
0
0
1
0
2
3
1
5
0
5
0
5
1
0
2
1
5
2
2
2
1
3
3
0
0
0
7
2
0
5
5
0
1
8
3
0
1
7
0
0
0
4
3
0
5
1
1
2
4
2
1
1
1
7
2
0
1
0
3
1
2
2
2
1
4
3
1
7
0
0
0
1
0
2
0
1
5
3
8
3
4
7
1
4
5
1
6
1
0
2
0
1
8
1
8
4
0
3
6
5
0
2
1
1
2
0
8
2
3
2
5
1
5
1
2
0
4
7
5
2
5
1
