1
4
6
6
10
0
1
3
1
4
8
1
4
2
2
2
6
0
0
2
2
5
0
3
6
1
0
7
7
2
1
1
1
1
3
0
7
1
3
2
0
0
1
2
2
2
5
0
3
3
5
2
1
4
2
0
2
1
7
0
3
0
3
6
6
6
0
2
0
6
6
7
1
2
3
0
8
8
8
2
6
2
3
0
6
5
3
5
8
1
0
0
6
1
3
0
8
6
3
2
0
0
2
4
0
2
3
9
2
0
7
2
6
2
1
6
2
0
7
0
1
0
0
1
0
5
2
2
0
2
0
2
2
6
0
0
3
2
3
0
4
0
2
0
3
8
0
6
2
5
2
5
2
7
0
0
5
3
0
0
8
3
6
2
2
4
6
1
5
0
8
2
1
6
2
0
8
1
2
2
2
1
0
0
1
3
1
2
1
0
3
0
4
0
2
7
2
1
6
0
